References	Qty	Description
BAT1	1	Battery 2xAA Multiple-cell battery BatteryHolder Keystone 2462
BAT2	1	Battery 2xAAA Multiple-cell battery BatteryHolder Keystone 2468
C1	1	C 1µF Unpolarized capacitor 0603 1608Metric Pad1.05x0.95mm HandSolder
C2	1	C 10µF Unpolarized capacitor 1206 3216Metric Pad1.42x1.75mm HandSolder
C3	1	C 150pF Unpolarized capacitor 0603 1608Metric Pad1.05x0.95mm HandSolder
C4	1	C 470pF Unpolarized capacitor 0603 1608Metric Pad1.05x0.95mm HandSolder
C5	1	C 1200pF Unpolarized capacitor 0603 1608Metric Pad1.05x0.95mm HandSolder
C6	1	C 2700pF Unpolarized capacitor 0603 1608Metric Pad1.05x0.95mm HandSolder
C7	1	C 220pF Unpolarized capacitor 0603 1608Metric Pad1.05x0.95mm HandSolder
D1	1	D Schottky B220A diode SMA Handsoldering
D2	1	D Schottky MBRM120LT3 diode Powermite KA
E1	1	Conn 01x01 SYST LOAD Generic connector, single row, 01x01, script generated (kicad-library-utils/schlib/autogen/connector/) PinHeader 1x01 P2.54mm Vertical
E2	1	Conn 01x01 GND Generic connector, single row, 01x01, script generated (kicad-library-utils/schlib/autogen/connector/) PinHeader 1x01 P2.54mm Vertical
E3	1	Conn 01x01 EXT NTC Generic connector, single row, 01x01, script generated (kicad-library-utils/schlib/autogen/connector/) PinHeader 1x01 P2.54mm Vertical
JP1	1	Conn 01x03 CHEM Generic connector, single row, 01x03, script generated (kicad-library-utils/schlib/autogen/connector/) PinHeader 1x03 P2.54mm Vertical
JP2	1	Conn 01x03 SEL0 Generic connector, single row, 01x03, script generated (kicad-library-utils/schlib/autogen/connector/) PinHeader 1x03 P2.54mm Vertical
JP3	1	Conn 01x03 SEL1 Generic connector, single row, 01x03, script generated (kicad-library-utils/schlib/autogen/connector/) PinHeader 1x03 P2.54mm Vertical
JP4	1	Conn 02x03 Odd Even NTC Generic connector, double row, 02x03, odd/even pin numbering scheme (row 1 odd numbers, row 2 even numbers), script generated (kicad-library-utils/schlib/autogen/connector/) PinHeader 2x03 P2.54mm Vertical
JP5	1	Conn 02x04 Odd Even TIMER Generic connector, double row, 02x04, odd/even pin numbering scheme (row 1 odd numbers, row 2 even numbers), script generated (kicad-library-utils/schlib/autogen/connector/) PinHeader 2x04 P2.54mm Vertical
JP6	1	Conn 01x04 CHARGE CURRENT Generic connector, single row, 01x04, script generated (kicad-library-utils/schlib/autogen/connector/) PinHeader 1x04 P2.54mm Vertical
JP7	1	Conn 02x03 Odd Even RECHARGE Generic connector, double row, 02x03, odd/even pin numbering scheme (row 1 odd numbers, row 2 even numbers), script generated (kicad-library-utils/schlib/autogen/connector/) PinHeader 2x03 P2.54mm Vertical
JP8	1	Conn 01x03 JACK ALIM 2.1MM Generic connector, single row, 01x03, script generated (kicad-library-utils/schlib/autogen/connector/) BarrelJack Horizontal
JP9	1	Conn 01x02 EXT BAT Generic connector, single row, 01x02, script generated (kicad-library-utils/schlib/autogen/connector/) TerminalBlock Phoenix MPT-0,5-2-2.54 1x02 P2.54mm Horizontal
LED1	1	LED POWER Light emitting diode 1206 3216Metric Pad1.42x1.75mm HandSolder
LED2	1	LED CHARGE Light emitting diode 1206 3216Metric Pad1.42x1.75mm HandSolder
Q1	1	Q NJFET GSD FDN306P N-JFET transistor, gate/source/drain SOT-23 Handsoldering
Q2	1	Q PNP BCE 2SB1202S transistor, base/collector/emitter TO-252-2
R1	1	R 1 Resistor 0603 1608Metric Pad1.05x0.95mm HandSolder
R2	1	R 390k Resistor 0603 1608Metric Pad1.05x0.95mm HandSolder
R3, R4	2	R 330 Resistor 0603 1608Metric Pad1.05x0.95mm HandSolder
R5	1	R OPT Resistor 0603 1608Metric Pad1.05x0.95mm HandSolder
R6	1	R 68k Resistor 1206 3216Metric Pad1.42x1.75mm HandSolder
R7	1	R 4.22k Resistor 1206 3216Metric Pad1.42x1.75mm HandSolder
R8	1	R 1 Resistor 1206 3216Metric Pad1.42x1.75mm HandSolder
R9	1	R 576 Resistor 1206 3216Metric Pad1.42x1.75mm HandSolder
R10	1	R 2.21k Resistor 1206 3216Metric Pad1.42x1.75mm HandSolder
R11	1	R 931 Resistor 1206 3216Metric Pad1.42x1.75mm HandSolder
R12	1	R 2.8k Resistor 1206 3216Metric Pad1.42x1.75mm HandSolder
TH1	1	Thermistor NTC 10k Temperature dependent resistor, negative temperature coefficient R 0805 2012Metric Pad1.15x1.40mm HandSolder
U1	1	LTC4060FEFE TSSOP-16-1EP 4.4x5mm P0.65mm
