M48
; DRILL file {KiCad (5.1.5)-3} date 09/03/2020 13:45:26
; FORMAT={-:-/ absolute / metric / decimal}
; #@! TF.CreationDate,2020-03-09T13:45:26+01:00
; #@! TF.GenerationSoftware,Kicad,Pcbnew,(5.1.5)-3
; #@! TF.FileFunction,NonPlated,1,2,NPTH
FMAT,2
METRIC
T1C1.100
T2C2.500
T3C3.300
T4C3.450
%
G90
G05
T1
X128.905Y-177.8
X131.445Y-177.8
T2
X62.42Y-92.9
X62.42Y-174.9
X149.42Y-174.9
X149.42Y-92.9
T3
X74.295Y-119.52
X89.285Y-119.52
T4
X76.96Y-163.385
X106.93Y-168.085
T0
M30
