M48
; DRILL file {KiCad (5.1.5)-3} date 09/03/2020 13:45:26
; FORMAT={-:-/ absolute / metric / decimal}
; #@! TF.CreationDate,2020-03-09T13:45:26+01:00
; #@! TF.GenerationSoftware,Kicad,Pcbnew,(5.1.5)-3
; #@! TF.FileFunction,Plated,1,2,PTH
FMAT,2
METRIC
T1C0.350
T2C1.000
T3C1.100
T4C1.200
T5C2.000
T6C3.000
T7C3.500
%
G90
G05
T1
X81.915Y-124.46
X99.06Y-134.62
X101.6Y-113.03
X102.235Y-132.715
X103.124Y-126.746
X104.14Y-135.382
X104.648Y-124.46
X105.41Y-134.62
X106.045Y-120.65
X106.172Y-136.144
X107.188Y-144.272
X107.442Y-135.89
X108.204Y-134.874
X110.49Y-124.46
X111.125Y-113.03
X112.522Y-132.08
X113.538Y-128.27
X117.602Y-128.27
X118.618Y-132.08
X123.952Y-131.572
X124.206Y-132.588
X125.095Y-115.57
X127.635Y-107.95
X130.175Y-135.89
X132.08Y-115.57
X134.62Y-133.35
X134.62Y-138.43
X150.495Y-128.27
T2
X144.78Y-113.03
X144.78Y-115.57
X144.78Y-118.11
X144.78Y-120.65
X147.32Y-113.03
X147.32Y-115.57
X147.32Y-118.11
X147.32Y-120.65
X147.32Y-130.81
X147.32Y-133.35
X147.32Y-135.89
X147.32Y-138.43
X144.78Y-149.86
X144.78Y-152.4
X144.78Y-154.94
X147.32Y-149.86
X147.32Y-152.4
X147.32Y-154.94
X101.6Y-93.98
X101.6Y-96.52
X101.6Y-99.06
X125.095Y-123.19
X125.095Y-125.73
X125.095Y-128.27
X132.715Y-123.19
X132.715Y-125.73
X132.715Y-128.27
X111.125Y-93.98
X111.125Y-96.52
X111.125Y-99.06
X113.665Y-93.98
X113.665Y-96.52
X113.665Y-99.06
T3
X128.905Y-175.26
X131.445Y-175.26
T4
X147.32Y-161.925
X147.32Y-166.37
X121.92Y-93.98
T5
X120.269Y-172.085
X120.269Y-159.385
X74.295Y-151.257
X89.281Y-151.257
X74.295Y-146.685
X89.285Y-146.685
X115.57Y-159.385
X115.57Y-172.085
T6
X128.65Y-99.87
X133.35Y-96.87
T7
X133.35Y-102.87
T0
M30
